spi_master.vcd
$date
	Wed Jul 15 01:37:18 2026
$end
$version
	Icarus Verilog
$end
$timescale
	1ps
$end
$scope module tb_spi_master $end
$var wire 1 ! spi_mosi $end
$var wire 1 " spi_cs $end
$var wire 1 # spi_clk $end
$var wire 1 $ resume $end
$var wire 16 % mem_dout [15:0] $end
$var reg 1 & clk $end
$var reg 2 ' mem_addr [1:0] $end
$var reg 16 ( mem_din [15:0] $end
$var reg 1 ) mem_din_we $end
$var reg 8 * miso_shift [7:0] $end
$var reg 8 + mosi_shift [7:0] $end
$var reg 1 , reset $end
$var reg 1 - spi_miso $end
$scope module dut $end
$var wire 1 & clk $end
$var wire 1 . half_enable_new $end
$var wire 2 / mem_addr [1:0] $end
$var wire 16 0 mem_din [15:0] $end
$var wire 1 ) mem_din_we $end
$var wire 1 , reset $end
$var wire 1 1 resume_new $end
$var wire 1 " spi_cs $end
$var wire 1 - spi_miso $end
$var wire 1 2 we $end
$var wire 8 3 tx_data_new_work [7:0] $end
$var wire 16 4 tx_data_new [15:0] $end
$var wire 1 ! spi_mosi $end
$var wire 1 5 spi_clk_new $end
$var wire 8 6 rx_data_new [7:0] $end
$var wire 1 7 enable_new $end
$var wire 16 8 cs_new [15:0] $end
$var wire 16 9 counter_new [15:0] $end
$var wire 16 : clk_div_new [15:0] $end
$var wire 3 ; bit_sended_counter_new [2:0] $end
$var parameter 2 < IDLE $end
$var parameter 2 = WRITE $end
$var reg 3 > bit_sended_counter [2:0] $end
$var reg 16 ? clk_div [15:0] $end
$var reg 16 @ counter [15:0] $end
$var reg 1 A cs $end
$var reg 1 B enable $end
$var reg 1 C half_enable $end
$var reg 16 D mem_dout [15:0] $end
$var reg 16 E mem_dout_new [15:0] $end
$var reg 1 $ resume $end
$var reg 8 F rx_data [7:0] $end
$var reg 1 # spi_clk $end
$var reg 2 G state [1:0] $end
$var reg 2 H state_new [1:0] $end
$var reg 8 I tx_data [7:0] $end
$upscope $end
$upscope $end
$enddefinitions $end
$comment Show the parameter values. $end
$dumpall
b1 =
b0 <
$end
#0
$dumpvars
bx I
bx H
bx G
bx F
bx E
bx D
0C
0B
xA
b0 @
bx ?
bx >
bx ;
bx :
b0x 9
b0x 8
x7
bx 6
x5
b0xxxxxxxx 4
bx 3
02
01
b0 0
b0 /
x.
0-
1,
bx +
b1011010 *
0)
b0 (
b0 '
0&
bx %
x$
x#
x"
x!
$end
#20000
0.
b0 4
b1 8
b0 ;
b0 6
b0 3
0!
b111110100 E
07
b111110100 :
05
b0 H
b0 9
0$
b0 >
b0 F
b0 I
1"
1A
b111110100 ?
0#
b0 %
b0 D
b0 G
1&
#40000
0&
#60000
1&
#80000
0&
#100000
b111110100 %
b111110100 D
1&
0,
#120000
0&
#140000
1&
#160000
0&
#180000
1&
#200000
0&
#220000
b101 :
12
1)
b101 (
b101 0
1&
#240000
0&
#260000
b101 E
b101 ?
b101 :
02
0)
1&
#280000
0&
#300000
b101 %
b101 D
b0 8
12
b1 E
1)
b0 (
b0 0
b1 '
b1 /
1&
#320000
0&
#340000
b0 E
0"
0A
b1 %
b1 D
b0 8
02
0)
1&
#360000
0&
#380000
b0 %
b0 D
b10100101 4
12
b1 H
1)
b10100101 (
b10100101 0
b10 '
b10 /
1&
#400000
0&
#420000
b10100101 E
b10100101 3
1!
b1 9
b10100101 I
b1 G
b10100101 4
02
b1 H
0)
1&
#440000
0&
#460000
1.
b10 9
b1 @
b10100101 %
b10100101 D
1&
#480000
0&
#500000
0.
b11 9
15
b10 @
1C
1&
#520000
0&
#540000
b100 9
b11 @
0C
1#
1&
#560000
0&
#580000
1.
b0 9
17
b100 @
1&
#600000
0&
#620000
b1001011 4
b1 9
0.
05
b1001011 3
b1 ;
07
b0 @
1C
1B
1&
#640000
0&
#660000
bx1 +
1-
b10110100 *
1.
b10 9
b1001011 E
0!
b1 @
b1 >
b1001011 I
0C
0B
0#
1&
#680000
0&
#700000
0.
b11 9
15
b10 @
1C
b1001011 %
b1001011 D
1&
#720000
0&
#740000
b100 9
b11 @
0C
1#
1&
#760000
0&
#780000
1.
b0 9
17
b100 @
1&
#800000
0&
#820000
b10010110 4
b1 9
0.
05
b1 6
b10010110 3
b10 ;
07
b0 @
1C
1B
1&
#840000
0&
#860000
bx10 +
0-
b1101000 *
1.
b10 9
b10010110 E
1!
b1 @
b10 >
b1 F
b10010110 I
0C
0B
0#
1&
#880000
0&
#900000
0.
b11 9
15
b10 @
1C
b10010110 %
b10010110 D
1&
#920000
0&
#940000
b100 9
b11 @
0C
1#
1&
#960000
0&
#980000
1.
b0 9
17
b100 @
1&
#1000000
0&
#1020000
b101101 4
b1 9
0.
05
b10 6
b101101 3
b11 ;
07
b0 @
1C
1B
1&
#1040000
0&
#1060000
bx101 +
1-
b11010000 *
1.
b10 9
b101101 E
0!
b1 @
b11 >
b10 F
b101101 I
0C
0B
0#
1&
#1080000
0&
#1100000
0.
b11 9
15
b10 @
1C
b101101 %
b101101 D
1&
#1120000
0&
#1140000
b100 9
b11 @
0C
1#
1&
#1160000
0&
#1180000
1.
b0 9
17
b100 @
1&
#1200000
0&
#1220000
b1011010 4
b1 9
0.
05
b101 6
b1011010 3
b100 ;
07
b0 @
1C
1B
1&
#1240000
0&
#1260000
bx1010 +
b10100000 *
1.
b10 9
b1011010 E
b1 @
b100 >
b101 F
b1011010 I
0C
0B
0#
1&
#1280000
0&
#1300000
0.
b11 9
15
b10 @
1C
b1011010 %
b1011010 D
1&
#1320000
0&
#1340000
b100 9
b11 @
0C
1#
1&
#1360000
0&
#1380000
1.
b0 9
17
b100 @
1&
#1400000
0&
#1420000
b10110100 4
b1 9
0.
05
b1011 6
b10110100 3
b101 ;
07
b0 @
1C
1B
1&
#1440000
0&
#1460000
bx10100 +
0-
b1000000 *
1.
b10 9
b10110100 E
1!
b1 @
b101 >
b1011 F
b10110100 I
0C
0B
0#
1&
#1480000
0&
#1500000
0.
b11 9
15
b10 @
1C
b10110100 %
b10110100 D
1&
#1520000
0&
#1540000
b100 9
b11 @
0C
1#
1&
#1560000
0&
#1580000
1.
b0 9
17
b100 @
1&
#1600000
0&
#1620000
b1101001 4
b1 9
0.
05
b10110 6
b1101001 3
b110 ;
07
b0 @
1C
1B
1&
#1640000
0&
#1660000
bx101001 +
1-
b10000000 *
1.
b10 9
b1101001 E
0!
b1 @
b110 >
b10110 F
b1101001 I
0C
0B
0#
1&
#1680000
0&
#1700000
0.
b11 9
15
b10 @
1C
b1101001 %
b1101001 D
1&
#1720000
0&
#1740000
b100 9
b11 @
0C
1#
1&
#1760000
0&
#1780000
1.
b0 9
17
b100 @
1&
#1800000
0&
#1820000
b11010010 4
b1 9
0.
05
b101101 6
b11010010 3
b111 ;
07
b0 @
1C
1B
1&
#1840000
0&
#1860000
bx1010010 +
0-
b0 *
1.
b10 9
b11010010 E
1!
b1 @
b111 >
b101101 F
b11010010 I
0C
0B
0#
1&
#1880000
0&
#1900000
0.
b11 9
15
b10 @
1C
b11010010 %
b11010010 D
1&
#1920000
0&
#1940000
b100 9
b11 @
0C
1#
1&
#1960000
0&
#1980000
1.
b0 9
17
b100 @
1&
#2000000
0&
#2020000
b10100101 4
b1 9
0.
05
b1011010 6
b10100101 3
b0 ;
07
b0 H
11
b0 @
1C
1B
1&
#2040000
0&
#2060000
b10100101 +
1.
b10100101 E
01
1$
b1 @
b0 >
b1011010 F
b10100101 I
b0 G
0C
0B
0#
1&
#2080000
0&
#2100000
0$
1C
b10100101 %
b10100101 D
b1011010 E
b11 '
b11 /
1&
#2120000
0&
#2140000
b1011010 %
b1011010 D
1&
